<svg width="12" height="14" viewBox="0 0 12 14" fill="none" xmlns="http://www.w3.org/2000/svg">
<path d="M5.00065 0.583008C4.67865 0.583008 4.41732 0.844341 4.41732 1.16634V1.74967H5.58398V1.16634C5.58398 0.844341 5.32265 0.583008 5.00065 0.583008ZM5.58398 1.74967V2.33301C5.58398 2.65501 5.32265 2.91634 5.00065 2.91634C4.67865 2.91634 4.41732 2.65501 4.41732 2.33301V1.74967H1.50065C0.856068 1.74967 0.333984 2.27176 0.333984 2.91634V11.6663C0.333984 12.3109 0.856068 12.833 1.50065 12.833H6.02604L5.51335 12.3203C5.02043 11.828 4.88844 11.1157 5.10661 10.4997H2.66732C2.08398 10.4997 2.08398 9.89128 2.08398 9.89128C2.08398 8.87336 3.40757 8.16634 5.00065 8.16634C6.5179 8.16634 7.77728 8.81194 7.89453 9.75228L7.98796 9.8457L8.50065 10.3584L9.66732 9.19173V2.91634C9.66732 2.27176 9.14523 1.74967 8.50065 1.74967H5.58398ZM5.00065 4.66634C5.82723 4.66634 6.45898 5.29809 6.45898 6.12467C6.45898 6.95126 5.82723 7.58301 5.00065 7.58301C4.17407 7.58301 3.54232 6.95126 3.54232 6.12467C3.54232 5.29809 4.17407 4.66634 5.00065 4.66634ZM11.4059 9.32731C11.2544 9.33183 11.1105 9.39516 11.0049 9.50391L8.50065 12.0081L7.16309 10.6706C7.10933 10.6146 7.04495 10.5699 6.97371 10.5391C6.90247 10.5083 6.8258 10.492 6.74819 10.4912C6.67058 10.4905 6.5936 10.5052 6.52175 10.5345C6.44989 10.5638 6.38461 10.6072 6.32973 10.6621C6.27486 10.717 6.23148 10.7822 6.20214 10.8541C6.17281 10.926 6.1581 11.0029 6.15889 11.0805C6.15968 11.1582 6.17595 11.2348 6.20674 11.3061C6.23753 11.3773 6.28223 11.4417 6.33822 11.4954L8.08822 13.2454C8.19762 13.3548 8.34597 13.4162 8.50065 13.4162C8.65533 13.4162 8.80369 13.3548 8.91309 13.2454L11.8298 10.3288C11.914 10.2468 11.9716 10.1413 11.9949 10.0261C12.0182 9.91091 12.0062 9.79134 11.9604 9.68308C11.9146 9.57482 11.8371 9.48293 11.7382 9.41944C11.6392 9.35596 11.5234 9.32385 11.4059 9.32731Z" fill="white"/>
</svg>
