[
  {
    "id": 1,
    "name": "Jawa Barat",
    "value": "jawabarat"
  },
  {
    "id": 2,
    "name": "Jawa Timur",
    "value": "jawatimur"
  },
  {
    "id": 3,
    "name": "Jawa Tengah",
    "value": "jawatengah"
  },
  {
    "id": 4,
    "name": "Jakarta",
    "value": "jakarta"
  }
]

